Catalogue of the Art Exhibit at the Metropolitan Fair
…
## Warning: 1 parsing failure.
## row col   expected actual
##   1  -- date like    Date

##  Date[1:1], format: NA

col_date(format = "1863")

## <collector_date>

catalogue %>%
  group_by(Artist, Artist_School) %>% 
      summarise(avg = mean(Price))

## Source: local data frame [40 x 3]
## Groups: Artist [?]
## 
##               Artist Artist_School   avg
##                <chr>         <chr> <dbl>
## 1      Achenbach, A.        German  3000
## 2      Achenbach, O.        German   390
## 3        Ansdell, R.       English  1150
## 4         Becker, J.        German   950
## 5          Begas, O.        German    65
## 6   Boddington, H.J.       English   510
## 7  Boser and Lessing        German   925
## 8       Brodie, J.L.       English   350
## 9      B\xd9rkel, H.        German   250
## 10          Cole, T.      American   790
## # ... with 30 more rows
…
